%YAML 1.1
%TAG !u! tag:unity3d.com,2011:
--- !u!74 &7400000
AnimationClip:
  m_ObjectHideFlags: 0
  m_CorrespondingSourceObject: {fileID: 0}
  m_PrefabInstance: {fileID: 0}
  m_PrefabAsset: {fileID: 0}
  m_Name: JaneAndando
  serializedVersion: 6
  m_Legacy: 0
  m_Compressed: 0
  m_UseHighQualityCurve: 1
  m_RotationCurves: []
  m_CompressedRotationCurves: []
  m_EulerCurves: []
  m_PositionCurves: []
  m_ScaleCurves: []
  m_FloatCurves: []
  m_PPtrCurves:
  - curve:
    - time: 0
      value: {fileID: 21300000, guid: 7f4da19db47681446966959853b950f2, type: 3}
    - time: 0.06666667
      value: {fileID: 21300000, guid: 7481324c23f75434dbcf1c17f09252e4, type: 3}
    - time: 0.13333334
      value: {fileID: 21300000, guid: 053c6c6fbcc26454eb82d5782f153b05, type: 3}
    - time: 0.2
      value: {fileID: 21300000, guid: 54a99b76939ea794a90f8855ef1bcc24, type: 3}
    - time: 0.26666668
      value: {fileID: 21300000, guid: 7d3a41760d384554ba2a9d9373181400, type: 3}
    - time: 0.33333334
      value: {fileID: 21300000, guid: 91883e778fa22a54ba2cc5913006870c, type: 3}
    - time: 0.4
      value: {fileID: 21300000, guid: cd1caba99b2434f44a5f8232a6d4e9a3, type: 3}
    - time: 0.46666667
      value: {fileID: 21300000, guid: 9b1c8e241865a7045b2002e913c46416, type: 3}
    - time: 0.53333336
      value: {fileID: 21300000, guid: 6e25bab4f8244fb419e63ecf6c0933d2, type: 3}
    - time: 0.6
      value: {fileID: 21300000, guid: d52cef219ce80ba4cb4a2223843405f3, type: 3}
    attribute: m_Sprite
    path: 
    classID: 212
    script: {fileID: 0}
  m_SampleRate: 15
  m_WrapMode: 0
  m_Bounds:
    m_Center: {x: 0, y: 0, z: 0}
    m_Extent: {x: 0, y: 0, z: 0}
  m_ClipBindingConstant:
    genericBindings:
    - serializedVersion: 2
      path: 0
      attribute: 0
      script: {fileID: 0}
      typeID: 212
      customType: 23
      isPPtrCurve: 1
    pptrCurveMapping:
    - {fileID: 21300000, guid: 7f4da19db47681446966959853b950f2, type: 3}
    - {fileID: 21300000, guid: 7481324c23f75434dbcf1c17f09252e4, type: 3}
    - {fileID: 21300000, guid: 053c6c6fbcc26454eb82d5782f153b05, type: 3}
    - {fileID: 21300000, guid: 54a99b76939ea794a90f8855ef1bcc24, type: 3}
    - {fileID: 21300000, guid: 7d3a41760d384554ba2a9d9373181400, type: 3}
    - {fileID: 21300000, guid: 91883e778fa22a54ba2cc5913006870c, type: 3}
    - {fileID: 21300000, guid: cd1caba99b2434f44a5f8232a6d4e9a3, type: 3}
    - {fileID: 21300000, guid: 9b1c8e241865a7045b2002e913c46416, type: 3}
    - {fileID: 21300000, guid: 6e25bab4f8244fb419e63ecf6c0933d2, type: 3}
    - {fileID: 21300000, guid: d52cef219ce80ba4cb4a2223843405f3, type: 3}
  m_AnimationClipSettings:
    serializedVersion: 2
    m_AdditiveReferencePoseClip: {fileID: 0}
    m_AdditiveReferencePoseTime: 0
    m_StartTime: 0
    m_StopTime: 0.6666667
    m_OrientationOffsetY: 0
    m_Level: 0
    m_CycleOffset: 0
    m_HasAdditiveReferencePose: 0
    m_LoopTime: 1
    m_LoopBlend: 0
    m_LoopBlendOrientation: 0
    m_LoopBlendPositionY: 0
    m_LoopBlendPositionXZ: 0
    m_KeepOriginalOrientation: 0
    m_KeepOriginalPositionY: 1
    m_KeepOriginalPositionXZ: 0
    m_HeightFromFeet: 0
    m_Mirror: 0
  m_EditorCurves: []
  m_EulerEditorCurves: []
  m_HasGenericRootTransform: 0
  m_HasMotionFloatCurves: 0
  m_Events: []
