%YAML 1.1
%TAG !u! tag:unity3d.com,2011:
--- !u!74 &7400000
AnimationClip:
  m_ObjectHideFlags: 0
  m_CorrespondingSourceObject: {fileID: 0}
  m_PrefabInstance: {fileID: 0}
  m_PrefabAsset: {fileID: 0}
  m_Name: JaneDead_Animation
  serializedVersion: 6
  m_Legacy: 0
  m_Compressed: 0
  m_UseHighQualityCurve: 1
  m_RotationCurves: []
  m_CompressedRotationCurves: []
  m_EulerCurves: []
  m_PositionCurves: []
  m_ScaleCurves: []
  m_FloatCurves: []
  m_PPtrCurves:
  - curve:
    - time: 0
      value: {fileID: 21300000, guid: 00a2abcfbe059914f815f7e7ad675d2b, type: 3}
    - time: 0.083333336
      value: {fileID: 21300000, guid: 089471fe935808c419e63da270be4528, type: 3}
    - time: 0.15
      value: {fileID: 21300000, guid: 4f454356c2bbc0847ad906c37309aa15, type: 3}
    - time: 0.25
      value: {fileID: 21300000, guid: e1f0179d1d8b58f438076d49900b9196, type: 3}
    - time: 0.33333334
      value: {fileID: 21300000, guid: c7662da811bf9e041b3e6aa802a8bc5a, type: 3}
    - time: 0.4
      value: {fileID: 21300000, guid: 6636786579645b941a26d128424f593f, type: 3}
    - time: 0.46666667
      value: {fileID: 21300000, guid: 1292ddab15bdf7a48bf88b10874deead, type: 3}
    - time: 0.55
      value: {fileID: 21300000, guid: 47fe35f24d292bd409c319ff2245c378, type: 3}
    - time: 0.65
      value: {fileID: 21300000, guid: 68de27fe2b91d464b9696057c4d6a7ee, type: 3}
    - time: 0.68333334
      value: {fileID: 21300000, guid: b2d158ba8244ff54384c50b1429a785f, type: 3}
    - time: 0.78333336
      value: {fileID: 21300000, guid: 08a830391c53a2045afa8c76f3b388f0, type: 3}
    - time: 0.8666667
      value: {fileID: 21300000, guid: d7184b9e14b181549ad33e98d2317af0, type: 3}
    - time: 0.93333334
      value: {fileID: 21300000, guid: 3877df3635cdd2c4ab752cfefa7377f2, type: 3}
    - time: 1
      value: {fileID: 21300000, guid: e31c3ad0eae25124fa3971a7c329a22d, type: 3}
    - time: 1.0833334
      value: {fileID: 21300000, guid: 0e7f08603c6864d459256282ddf66cea, type: 3}
    - time: 1.1833333
      value: {fileID: 21300000, guid: bd566c13e96274045972c167909de041, type: 3}
    - time: 1.25
      value: {fileID: 21300000, guid: 5eba4f872530e6a4c91b19373c902dea, type: 3}
    - time: 1.3333334
      value: {fileID: 21300000, guid: 2e1a28c95557d6c46bb3a3e0f7ac5536, type: 3}
    attribute: m_Sprite
    path: 
    classID: 212
    script: {fileID: 0}
  m_SampleRate: 60
  m_WrapMode: 0
  m_Bounds:
    m_Center: {x: 0, y: 0, z: 0}
    m_Extent: {x: 0, y: 0, z: 0}
  m_ClipBindingConstant:
    genericBindings:
    - serializedVersion: 2
      path: 0
      attribute: 0
      script: {fileID: 0}
      typeID: 212
      customType: 23
      isPPtrCurve: 1
    pptrCurveMapping:
    - {fileID: 21300000, guid: 00a2abcfbe059914f815f7e7ad675d2b, type: 3}
    - {fileID: 21300000, guid: 089471fe935808c419e63da270be4528, type: 3}
    - {fileID: 21300000, guid: 4f454356c2bbc0847ad906c37309aa15, type: 3}
    - {fileID: 21300000, guid: e1f0179d1d8b58f438076d49900b9196, type: 3}
    - {fileID: 21300000, guid: c7662da811bf9e041b3e6aa802a8bc5a, type: 3}
    - {fileID: 21300000, guid: 6636786579645b941a26d128424f593f, type: 3}
    - {fileID: 21300000, guid: 1292ddab15bdf7a48bf88b10874deead, type: 3}
    - {fileID: 21300000, guid: 47fe35f24d292bd409c319ff2245c378, type: 3}
    - {fileID: 21300000, guid: 68de27fe2b91d464b9696057c4d6a7ee, type: 3}
    - {fileID: 21300000, guid: b2d158ba8244ff54384c50b1429a785f, type: 3}
    - {fileID: 21300000, guid: 08a830391c53a2045afa8c76f3b388f0, type: 3}
    - {fileID: 21300000, guid: d7184b9e14b181549ad33e98d2317af0, type: 3}
    - {fileID: 21300000, guid: 3877df3635cdd2c4ab752cfefa7377f2, type: 3}
    - {fileID: 21300000, guid: e31c3ad0eae25124fa3971a7c329a22d, type: 3}
    - {fileID: 21300000, guid: 0e7f08603c6864d459256282ddf66cea, type: 3}
    - {fileID: 21300000, guid: bd566c13e96274045972c167909de041, type: 3}
    - {fileID: 21300000, guid: 5eba4f872530e6a4c91b19373c902dea, type: 3}
    - {fileID: 21300000, guid: 2e1a28c95557d6c46bb3a3e0f7ac5536, type: 3}
  m_AnimationClipSettings:
    serializedVersion: 2
    m_AdditiveReferencePoseClip: {fileID: 0}
    m_AdditiveReferencePoseTime: 0
    m_StartTime: 0
    m_StopTime: 1.35
    m_OrientationOffsetY: 0
    m_Level: 0
    m_CycleOffset: 0
    m_HasAdditiveReferencePose: 0
    m_LoopTime: 1
    m_LoopBlend: 0
    m_LoopBlendOrientation: 0
    m_LoopBlendPositionY: 0
    m_LoopBlendPositionXZ: 0
    m_KeepOriginalOrientation: 0
    m_KeepOriginalPositionY: 1
    m_KeepOriginalPositionXZ: 0
    m_HeightFromFeet: 0
    m_Mirror: 0
  m_EditorCurves: []
  m_EulerEditorCurves: []
  m_HasGenericRootTransform: 0
  m_HasMotionFloatCurves: 0
  m_Events: []
