%YAML 1.1
%TAG !u! tag:unity3d.com,2011:
--- !u!74 &7400000
AnimationClip:
  m_ObjectHideFlags: 0
  m_CorrespondingSourceObject: {fileID: 0}
  m_PrefabInstance: {fileID: 0}
  m_PrefabAsset: {fileID: 0}
  m_Name: ze_Jacare_Andando_barco
  serializedVersion: 6
  m_Legacy: 0
  m_Compressed: 0
  m_UseHighQualityCurve: 1
  m_RotationCurves: []
  m_CompressedRotationCurves: []
  m_EulerCurves: []
  m_PositionCurves: []
  m_ScaleCurves: []
  m_FloatCurves: []
  m_PPtrCurves:
  - curve:
    - time: 0
      value: {fileID: 21300000, guid: cf8e4503564901b4aac6d8a7c5f812ca, type: 3}
    - time: 0.1
      value: {fileID: 21300000, guid: 0ba30e16d7d4d394283500ef5feb1aca, type: 3}
    - time: 0.2
      value: {fileID: 21300000, guid: 410e4d297ff23ff43ac6264421b09209, type: 3}
    - time: 0.3
      value: {fileID: 21300000, guid: 43c1ec1ed9849894c996bcf76d63bace, type: 3}
    - time: 0.4
      value: {fileID: 21300000, guid: 6dbbefd60025cf444a022fc0b0054d10, type: 3}
    - time: 0.5
      value: {fileID: 21300000, guid: 7ce9b645b6d3aa048a13a56d4e9ffc7f, type: 3}
    attribute: m_Sprite
    path: 
    classID: 212
    script: {fileID: 0}
  m_SampleRate: 10
  m_WrapMode: 0
  m_Bounds:
    m_Center: {x: 0, y: 0, z: 0}
    m_Extent: {x: 0, y: 0, z: 0}
  m_ClipBindingConstant:
    genericBindings:
    - serializedVersion: 2
      path: 0
      attribute: 0
      script: {fileID: 0}
      typeID: 212
      customType: 23
      isPPtrCurve: 1
    pptrCurveMapping:
    - {fileID: 21300000, guid: cf8e4503564901b4aac6d8a7c5f812ca, type: 3}
    - {fileID: 21300000, guid: 0ba30e16d7d4d394283500ef5feb1aca, type: 3}
    - {fileID: 21300000, guid: 410e4d297ff23ff43ac6264421b09209, type: 3}
    - {fileID: 21300000, guid: 43c1ec1ed9849894c996bcf76d63bace, type: 3}
    - {fileID: 21300000, guid: 6dbbefd60025cf444a022fc0b0054d10, type: 3}
    - {fileID: 21300000, guid: 7ce9b645b6d3aa048a13a56d4e9ffc7f, type: 3}
  m_AnimationClipSettings:
    serializedVersion: 2
    m_AdditiveReferencePoseClip: {fileID: 0}
    m_AdditiveReferencePoseTime: 0
    m_StartTime: 0
    m_StopTime: 0.6
    m_OrientationOffsetY: 0
    m_Level: 0
    m_CycleOffset: 0
    m_HasAdditiveReferencePose: 0
    m_LoopTime: 1
    m_LoopBlend: 0
    m_LoopBlendOrientation: 0
    m_LoopBlendPositionY: 0
    m_LoopBlendPositionXZ: 0
    m_KeepOriginalOrientation: 0
    m_KeepOriginalPositionY: 1
    m_KeepOriginalPositionXZ: 0
    m_HeightFromFeet: 0
    m_Mirror: 0
  m_EditorCurves: []
  m_EulerEditorCurves: []
  m_HasGenericRootTransform: 0
  m_HasMotionFloatCurves: 0
  m_Events: []
