%YAML 1.1
%TAG !u! tag:unity3d.com,2011:
--- !u!74 &7400000
AnimationClip:
  m_ObjectHideFlags: 0
  m_CorrespondingSourceObject: {fileID: 0}
  m_PrefabInstance: {fileID: 0}
  m_PrefabAsset: {fileID: 0}
  m_Name: Estrelas1_anima
  serializedVersion: 6
  m_Legacy: 0
  m_Compressed: 0
  m_UseHighQualityCurve: 1
  m_RotationCurves: []
  m_CompressedRotationCurves: []
  m_EulerCurves: []
  m_PositionCurves: []
  m_ScaleCurves: []
  m_FloatCurves: []
  m_PPtrCurves:
  - curve:
    - time: 0
      value: {fileID: 21300000, guid: ea9c3ba88ee3a9d4682570ad15d0a748, type: 3}
    - time: 0.071428575
      value: {fileID: 21300000, guid: 21bcfd2fdb8b6d349b0f12c24dbf5f2b, type: 3}
    - time: 0.14285715
      value: {fileID: 21300000, guid: 57049ee872049ff428a77f34b93f6bea, type: 3}
    - time: 0.21428572
      value: {fileID: 21300000, guid: 8ecb188bdfd06984ba9eb35f27ad055d, type: 3}
    - time: 0.2857143
      value: {fileID: 21300000, guid: 79015ec0251dff04dab6a9a0ee0802bb, type: 3}
    - time: 0.35714287
      value: {fileID: 21300000, guid: 26cfac29f7ff4e64fbb9e8dd5f35288f, type: 3}
    attribute: m_Sprite
    path: 
    classID: 212
    script: {fileID: 0}
  m_SampleRate: 14
  m_WrapMode: 0
  m_Bounds:
    m_Center: {x: 0, y: 0, z: 0}
    m_Extent: {x: 0, y: 0, z: 0}
  m_ClipBindingConstant:
    genericBindings:
    - serializedVersion: 2
      path: 0
      attribute: 0
      script: {fileID: 0}
      typeID: 212
      customType: 23
      isPPtrCurve: 1
    pptrCurveMapping:
    - {fileID: 21300000, guid: ea9c3ba88ee3a9d4682570ad15d0a748, type: 3}
    - {fileID: 21300000, guid: 21bcfd2fdb8b6d349b0f12c24dbf5f2b, type: 3}
    - {fileID: 21300000, guid: 57049ee872049ff428a77f34b93f6bea, type: 3}
    - {fileID: 21300000, guid: 8ecb188bdfd06984ba9eb35f27ad055d, type: 3}
    - {fileID: 21300000, guid: 79015ec0251dff04dab6a9a0ee0802bb, type: 3}
    - {fileID: 21300000, guid: 26cfac29f7ff4e64fbb9e8dd5f35288f, type: 3}
  m_AnimationClipSettings:
    serializedVersion: 2
    m_AdditiveReferencePoseClip: {fileID: 0}
    m_AdditiveReferencePoseTime: 0
    m_StartTime: 0
    m_StopTime: 0.42857143
    m_OrientationOffsetY: 0
    m_Level: 0
    m_CycleOffset: 0
    m_HasAdditiveReferencePose: 0
    m_LoopTime: 1
    m_LoopBlend: 0
    m_LoopBlendOrientation: 0
    m_LoopBlendPositionY: 0
    m_LoopBlendPositionXZ: 0
    m_KeepOriginalOrientation: 0
    m_KeepOriginalPositionY: 1
    m_KeepOriginalPositionXZ: 0
    m_HeightFromFeet: 0
    m_Mirror: 0
  m_EditorCurves: []
  m_EulerEditorCurves: []
  m_HasGenericRootTransform: 0
  m_HasMotionFloatCurves: 0
  m_Events: []
