%YAML 1.1
%TAG !u! tag:unity3d.com,2011:
--- !u!74 &7400000
AnimationClip:
  m_ObjectHideFlags: 0
  m_CorrespondingSourceObject: {fileID: 0}
  m_PrefabInstance: {fileID: 0}
  m_PrefabAsset: {fileID: 0}
  m_Name: MeanyDead
  serializedVersion: 6
  m_Legacy: 0
  m_Compressed: 0
  m_UseHighQualityCurve: 1
  m_RotationCurves: []
  m_CompressedRotationCurves: []
  m_EulerCurves: []
  m_PositionCurves: []
  m_ScaleCurves: []
  m_FloatCurves: []
  m_PPtrCurves:
  - curve:
    - time: 0
      value: {fileID: -16375229581656566, guid: aa239fb6ca789304a9a0c01a91fd59bc,
        type: 3}
    - time: 0.05
      value: {fileID: -3721259189011295273, guid: aa239fb6ca789304a9a0c01a91fd59bc,
        type: 3}
    - time: 0.1
      value: {fileID: -7823126546641339099, guid: aa239fb6ca789304a9a0c01a91fd59bc,
        type: 3}
    - time: 0.15
      value: {fileID: 3259772603568293823, guid: aa239fb6ca789304a9a0c01a91fd59bc,
        type: 3}
    - time: 0.2
      value: {fileID: 8423482520064337428, guid: aa239fb6ca789304a9a0c01a91fd59bc,
        type: 3}
    - time: 0.25
      value: {fileID: -5152745624570729070, guid: aa239fb6ca789304a9a0c01a91fd59bc,
        type: 3}
    - time: 0.3
      value: {fileID: -1157336401652502218, guid: aa239fb6ca789304a9a0c01a91fd59bc,
        type: 3}
    - time: 0.35
      value: {fileID: -7725313697215457597, guid: aa239fb6ca789304a9a0c01a91fd59bc,
        type: 3}
    - time: 0.38333333
      value: {fileID: -6992358090536634606, guid: aa239fb6ca789304a9a0c01a91fd59bc,
        type: 3}
    - time: 0.45
      value: {fileID: 898442834669829325, guid: aa239fb6ca789304a9a0c01a91fd59bc,
        type: 3}
    - time: 0.48333332
      value: {fileID: 2846802592007055637, guid: aa239fb6ca789304a9a0c01a91fd59bc,
        type: 3}
    - time: 0.53333336
      value: {fileID: -87742668678001412, guid: aa239fb6ca789304a9a0c01a91fd59bc,
        type: 3}
    - time: 0.5833333
      value: {fileID: 889475987018238143, guid: aa239fb6ca789304a9a0c01a91fd59bc,
        type: 3}
    - time: 0.6333333
      value: {fileID: -8879111264675625170, guid: aa239fb6ca789304a9a0c01a91fd59bc,
        type: 3}
    - time: 0.68333334
      value: {fileID: 745981865371088513, guid: aa239fb6ca789304a9a0c01a91fd59bc,
        type: 3}
    - time: 0.73333335
      value: {fileID: -3130833154969415952, guid: aa239fb6ca789304a9a0c01a91fd59bc,
        type: 3}
    - time: 0.78333336
      value: {fileID: -4060017567850595095, guid: aa239fb6ca789304a9a0c01a91fd59bc,
        type: 3}
    - time: 0.8333333
      value: {fileID: 457966955000784669, guid: aa239fb6ca789304a9a0c01a91fd59bc,
        type: 3}
    attribute: m_Sprite
    path: 
    classID: 212
    script: {fileID: 0}
  m_SampleRate: 60
  m_WrapMode: 0
  m_Bounds:
    m_Center: {x: 0, y: 0, z: 0}
    m_Extent: {x: 0, y: 0, z: 0}
  m_ClipBindingConstant:
    genericBindings:
    - serializedVersion: 2
      path: 0
      attribute: 0
      script: {fileID: 0}
      typeID: 212
      customType: 23
      isPPtrCurve: 1
    pptrCurveMapping:
    - {fileID: -16375229581656566, guid: aa239fb6ca789304a9a0c01a91fd59bc, type: 3}
    - {fileID: -3721259189011295273, guid: aa239fb6ca789304a9a0c01a91fd59bc, type: 3}
    - {fileID: -7823126546641339099, guid: aa239fb6ca789304a9a0c01a91fd59bc, type: 3}
    - {fileID: 3259772603568293823, guid: aa239fb6ca789304a9a0c01a91fd59bc, type: 3}
    - {fileID: 8423482520064337428, guid: aa239fb6ca789304a9a0c01a91fd59bc, type: 3}
    - {fileID: -5152745624570729070, guid: aa239fb6ca789304a9a0c01a91fd59bc, type: 3}
    - {fileID: -1157336401652502218, guid: aa239fb6ca789304a9a0c01a91fd59bc, type: 3}
    - {fileID: -7725313697215457597, guid: aa239fb6ca789304a9a0c01a91fd59bc, type: 3}
    - {fileID: -6992358090536634606, guid: aa239fb6ca789304a9a0c01a91fd59bc, type: 3}
    - {fileID: 898442834669829325, guid: aa239fb6ca789304a9a0c01a91fd59bc, type: 3}
    - {fileID: 2846802592007055637, guid: aa239fb6ca789304a9a0c01a91fd59bc, type: 3}
    - {fileID: -87742668678001412, guid: aa239fb6ca789304a9a0c01a91fd59bc, type: 3}
    - {fileID: 889475987018238143, guid: aa239fb6ca789304a9a0c01a91fd59bc, type: 3}
    - {fileID: -8879111264675625170, guid: aa239fb6ca789304a9a0c01a91fd59bc, type: 3}
    - {fileID: 745981865371088513, guid: aa239fb6ca789304a9a0c01a91fd59bc, type: 3}
    - {fileID: -3130833154969415952, guid: aa239fb6ca789304a9a0c01a91fd59bc, type: 3}
    - {fileID: -4060017567850595095, guid: aa239fb6ca789304a9a0c01a91fd59bc, type: 3}
    - {fileID: 457966955000784669, guid: aa239fb6ca789304a9a0c01a91fd59bc, type: 3}
  m_AnimationClipSettings:
    serializedVersion: 2
    m_AdditiveReferencePoseClip: {fileID: 0}
    m_AdditiveReferencePoseTime: 0
    m_StartTime: 0
    m_StopTime: 0.84999996
    m_OrientationOffsetY: 0
    m_Level: 0
    m_CycleOffset: 0
    m_HasAdditiveReferencePose: 0
    m_LoopTime: 1
    m_LoopBlend: 0
    m_LoopBlendOrientation: 0
    m_LoopBlendPositionY: 0
    m_LoopBlendPositionXZ: 0
    m_KeepOriginalOrientation: 0
    m_KeepOriginalPositionY: 1
    m_KeepOriginalPositionXZ: 0
    m_HeightFromFeet: 0
    m_Mirror: 0
  m_EditorCurves: []
  m_EulerEditorCurves: []
  m_HasGenericRootTransform: 0
  m_HasMotionFloatCurves: 0
  m_Events: []
